Logistic Regression
…
# code here

#example (delete this):
myModel = logistic_reg() %>%
  set_engine("glm") %>%
  fit(as.factor(type) ~ you + address, data = train, family = "binomial")

and test it on the testing set,

prediction = test %>%
  mutate(myModelPrediction = predict(myModel, test)$.pred_class) 

prediction

# A tibble: 2,000 × 59
    make address   all num3d   our  over remove internet order  mail receive
   <dbl>   <dbl> <dbl> <dbl> <dbl> <dbl>  <dbl>    <dbl> <dbl> <dbl>   <dbl>
 1  0       0     0.7      0  0     0.14   0        0     0.28  0       0   
 2  0       0     0        0  0     0      0        0     0     0       0   
 3  0       0     2.5      0  0     0      0        0     0     0       0   
 4  0       2.08  0        0  3.12  0      1.04     0     0     0       0   
 5  0       0     1.04     0  1.04  0      0        1.39  0.34  0       0   
 6  0       0.35  0.7      0  0.35  0      0        0     0     0       0   
 7  0.39    0     0        0  1.17  0      0        0     0     0.39    0   
 8  0       0.25  0.75     0  1     0.25   0        0     0     0       0.25
 9  0       0     0        0  0.87  0      0        0     0     0       1.31
10  0       0     0        0  1.11  0      0        0.55  0     3.91    0   
# … with 1,990 more rows, and 48 more variables: will <dbl>, people <dbl>,
#   report <dbl>, addresses <dbl>, free <dbl>, business <dbl>, email <dbl>,
#   you <dbl>, credit <dbl>, your <dbl>, font <dbl>, num000 <dbl>, money <dbl>,
#   hp <dbl>, hpl <dbl>, george <dbl>, num650 <dbl>, lab <dbl>, labs <dbl>,
#   telnet <dbl>, num857 <dbl>, data <dbl>, num415 <dbl>, num85 <dbl>,
#   technology <dbl>, num1999 <dbl>, parts <dbl>, pm <dbl>, direct <dbl>,
#   cs <dbl>, meeting <dbl>, original <dbl>, project <dbl>, re <dbl>, …
…
