Exploratory Data Analysis I
…
!x
is not x?

The above operations return TRUE (1) or FALSE (0).

Examples

How many penguins have flipper length > 200 mm?

penguins %>%
  filter(flipper_length_mm > 200)

# A tibble: 148 × 8
   species island    bill_length_mm bill_depth_mm flipper_length_mm body_mass_g
   <fct>   <fct>              <dbl>         <dbl>             <int>       <int>
 1 Adelie  Dream               35.7          18                 202        3550
 2 Adelie  Dream               41.1          18.1               205        4300
 3 Adelie  Dream               40.8          18.9               208        4300
 4 Adelie  Biscoe              41            20                 203        4725
 5 Adelie  Torgersen           41.4          18.5               202        3875
 6 Adelie  Torgersen           44.1          18                 210        4000
 7 Adelie  Dream               41.5          18.5               201        4000
 8 Gentoo  Biscoe              46.1          13.2               211        4500
 9 Gentoo  Biscoe              50            16.3               230        5700
10 Gentoo  Biscoe              48.7          14.1               210        4450
# … with 138 more rows, and 2 more variables: sex <fct>, year <int>

We could also pipe into nrow() to quickly grab the number of rows. Try it!

How many female penguins have flipper length > 200 mm?

penguins %>%
  filter(flipper_length_mm > 200 & (sex == "female"))

# A tibble: 60 × 8
   species island bill_length_mm bill_depth_mm flipper_length_mm body_mass_g
   <fct>   <fct>           <dbl>         <dbl>             <int>       <int>
 1 Adelie  Dream            35.7          18                 202        3550
 2 Gentoo  Biscoe           46.1          13.2               211        4500
 3 Gentoo  Biscoe           48.7          14.1               210        4450
 4 Gentoo  Biscoe           46.5          13.5               210        4550
 5 Gentoo  Biscoe           45.4          14.6               211        4800
 6 Gentoo  Biscoe           43.3          13.4               209        4400
 7 Gentoo  Biscoe           40.9          13.7               214        4650
 8 Gentoo  Biscoe           45.5          13.7               214        4650
 9 Gentoo  Biscoe           45.8          14.6               210        4200
10 Gentoo  Biscoe           42            13.5               210        4150
# … with 50 more rows, and 2 more variables: sex <fct>, year <int>
…
# A tibble: 2 × 8
  species island bill_length_mm bill_depth_mm flipper_length_… body_mass_g sex  
  <fct>   <fct>           <dbl>         <dbl>            <int>       <int> <fct>
1 Adelie  Torge…             NA            NA               NA          NA <NA> 
2 Gentoo  Biscoe             NA            NA               NA          NA <NA> 
# … with 1 more variable: year <int>

How many penguins are of species Adelie or Chinstrap?

penguins %>%
  filter(species %in% c("Adelie", "Chinstrap"))

# A tibble: 220 × 8
   species island    bill_length_mm bill_depth_mm flipper_length_mm body_mass_g
   <fct>   <fct>              <dbl>         <dbl>             <int>       <int>
 1 Adelie  Torgersen           39.1          18.7               181        3750
 2 Adelie  Torgersen           39.5          17.4               186        3800
 3 Adelie  Torgersen           40.3          18                 195        3250
 4 Adelie  Torgersen           NA            NA                  NA          NA
 5 Adelie  Torgersen           36.7          19.3               193        3450
 6 Adelie  Torgersen           39.3          20.6               190        3650
 7 Adelie  Torgersen           38.9          17.8               181        3625
 8 Adelie  Torgersen           39.2          19.6               195        4675
 9 Adelie  Torgersen           34.1          18.1               193        3475
10 Adelie  Torgersen           42            20.2               190        4250
# … with 210 more rows, and 2 more variables: sex <fct>, year <int>
…
