Exploratory Data Analysis II
…
(as described at https://dplyr.tidyverse.org/)

Check out documentation with ?

Mutate

mutate() adds new variables (columns) that are functions of existing variables

Approximate bill area (in \(m^2\)) as bill length * bill depth:

penguins %>%
  mutate(bill_area_mm2 = bill_length_mm * bill_depth_mm)

# A tibble: 344 × 9
   species island    bill_length_mm bill_depth_mm flipper_length_mm body_mass_g
   <fct>   <fct>              <dbl>         <dbl>             <int>       <int>
 1 Adelie  Torgersen           39.1          18.7               181        3750
 2 Adelie  Torgersen           39.5          17.4               186        3800
 3 Adelie  Torgersen           40.3          18                 195        3250
 4 Adelie  Torgersen           NA            NA                  NA          NA
 5 Adelie  Torgersen           36.7          19.3               193        3450
 6 Adelie  Torgersen           39.3          20.6               190        3650
 7 Adelie  Torgersen           38.9          17.8               181        3625
 8 Adelie  Torgersen           39.2          19.6               195        4675
 9 Adelie  Torgersen           34.1          18.1               193        3475
10 Adelie  Torgersen           42            20.2               190        4250
# … with 334 more rows, and 3 more variables: sex <fct>, year <int>,
#   bill_area_mm2 <dbl>

Select

select() picks variables (columns) based on their names.

It’s hard to see bill length, depth and area in the same output, let’s select a smaller subset of the variables to look at.

# Example 1
penguins %>%
  mutate(bill_area_mm2 = bill_length_mm * bill_depth_mm) %>%
  select(-c(year, species, island, flipper_length_mm, body_mass_g, sex))

# A tibble: 344 × 3
   bill_length_mm bill_depth_mm bill_area_mm2
            <dbl>         <dbl>         <dbl>
 1           39.1          18.7          731.
 2           39.5          17.4          687.
 3           40.3          18            725.
 4           NA            NA             NA 
 5           36.7          19.3          708.
 6           39.3          20.6          810.
 7           38.9          17.8          692.
 8           39.2          19.6          768.
 9           34.1          18.1          617.
10           42            20.2          848.
# … with 334 more rows

# Example 2
penguins %>%
  mutate(bill_area_mm2 = bill_length_mm * bill_depth_mm) %>%
  select(bill_length_mm, bill_depth_mm, bill_area_mm2)

# A tibble: 344 × 3
   bill_length_mm bill_depth_mm bill_area_mm2
            <dbl>         <dbl>         <dbl>
 1           39.1          18.7          731.
 2           39.5          17.4          687.
 3           40.3          18            725.
 4           NA            NA             NA 
 5           36.7          19.3          708.
 6           39.3          20.6          810.
 7           38.9          17.8          692.
 8           39.2          19.6          768.
 9           34.1          18.1          617.
10           42            20.2          848.
# … with 334 more rows
…
Arrange + Slice

arrange() changes the ordering of the rows.

slice() select, remove and duplicate rows based on their index

Let’s use arrange() and slice() to report the five penguins with the greatest bill area.

penguins %>%
  mutate(bill_area_mm2 = bill_length_mm * bill_depth_mm) %>%
  select(bill_area_mm2, bill_length_mm) %>%
  arrange(desc(bill_area_mm2))

# A tibble: 344 × 2
   bill_area_mm2 bill_length_mm
           <dbl>          <dbl>
 1         1127.           54.2
 2         1105.           55.8
 3         1076.           52  
 4         1065.           53.5
 5         1056            52.8
 6         1050.           51.7
 7         1043.           52.7
 8         1032.           58  
 9         1021.           51.3
10         1013.           59.6
# … with 334 more rows

Exercise 3:

Are these the same five penguins with the longest bills?

Optional hint: if you want to be exactly precise about which penguins are which, you could add an ID column, e.g.

 penguins %>%
  mutate(id = seq(1:nrow(penguins)))

# A tibble: 344 × 9
   species island    bill_length_mm bill_depth_mm flipper_length_mm body_mass_g
   <fct>   <fct>              <dbl>         <dbl>             <int>       <int>
 1 Adelie  Torgersen           39.1          18.7               181        3750
 2 Adelie  Torgersen           39.5          17.4               186        3800
 3 Adelie  Torgersen           40.3          18                 195        3250
 4 Adelie  Torgersen           NA            NA                  NA          NA
 5 Adelie  Torgersen           36.7          19.3               193        3450
 6 Adelie  Torgersen           39.3          20.6               190        3650
 7 Adelie  Torgersen           38.9          17.8               181        3625
 8 Adelie  Torgersen           39.2          19.6               195        4675
 9 Adelie  Torgersen           34.1          18.1               193        3475
10 Adelie  Torgersen           42            20.2               190        4250
# … with 334 more rows, and 3 more variables: sex <fct>, year <int>, id <int>
…
