Hypothesis testing
…
<!-- go to doc cam example or animated example...-->

---
## Shuffle

What might our observed statistic looked like if the null was true?

---
## Shuffle labels

.pull-left[
We want to shuffle labels,

```
## # A tibble: 67 × 3
##    game_date result random_location
##    <chr>     <chr>  <chr>          
##  1 4/15/2017 win    Home           
##  2 4/22/2017 win    Away           
##  3 4/29/2017 win    Home           
##  4 5/7/2017  win    Home           
##  5 5/14/2017 loss   Home           
##  6 5/21/2017 loss   Home           
##  7 5/24/2017 win    Home           
##  8 5/27/2017 loss   Away           
##  9 6/3/2017  win    Away           
## 10 6/17/2017 win    Home           
## # … with 57 more rows
```
…
